# Blender v2.79 (sub 0) OBJ File: ''
# www.blender.org
mtllib beaker.mtl
o pDisc1
v -0.005511 0.049150 -0.003182
v -0.005838 0.049150 -0.003371
v -0.006741 0.049150 0.000000
v -0.005511 0.049150 0.003182
v -0.005838 0.049150 0.003371
v -0.003371 0.049150 0.005838
v 0.000000 0.049150 0.006741
v 0.000000 0.049150 0.006364
v 0.003371 0.049150 0.005838
v 0.005511 0.049150 0.003182
v 0.005838 0.049150 0.003371
v 0.006741 0.049150 0.000000
v 0.005838 0.049150 -0.003371
v 0.005511 0.049150 -0.003182
v 0.003371 0.049150 -0.005838
v 0.000000 0.049150 -0.006364
v 0.000000 0.049150 -0.006741
v -0.003371 0.049150 -0.005838
v -0.007580 0.000000 -0.004377
v -0.007580 -0.000000 0.004377
v -0.016720 0.002044 0.000000
v -0.014480 0.002044 -0.008360
v -0.008360 0.002044 0.014480
v -0.014480 0.002044 0.008360
v 0.000000 -0.000000 0.008753
v 0.000000 0.002044 0.016720
v 0.000000 0.000000 0.000000
v 0.007580 -0.000000 0.004377
v 0.008360 0.002044 0.014480
v 0.016720 0.002044 0.000000
v 0.014480 0.002044 0.008360
v 0.007580 0.000000 -0.004377
v 0.014480 0.002044 -0.008360
v 0.000000 0.000000 -0.008753
v 0.008360 0.002044 -0.014480
v -0.008360 0.002044 -0.014480
v 0.000000 0.002044 -0.016720
v -0.006741 0.036789 0.000000
v -0.005838 0.036789 -0.003371
v -0.005838 0.036789 0.003371
v -0.003371 0.036789 0.005838
v 0.000000 0.036789 0.006741
v 0.003371 0.036789 0.005838
v 0.005838 0.036789 0.003371
v 0.006741 0.036789 0.000000
v 0.005838 0.036789 -0.003371
v 0.003371 0.036789 -0.005838
v 0.000000 0.036789 -0.006741
v -0.003371 0.036789 -0.005838
vt 0.283494 0.625000
vt 0.066987 0.750000
vt 0.000000 0.500000
vt 0.283494 0.375000
vt 0.066987 0.250000
vt 0.250000 0.066987
vt 0.500000 0.000000
vt 0.500000 0.250000
vt 0.750000 0.066987
vt 0.716506 0.375000
vt 0.933013 0.250000
vt 1.000000 0.500000
vt 0.933013 0.750000
vt 0.716506 0.625000
vt 0.750000 0.933013
vt 0.500000 0.750000
vt 0.500000 1.000000
vt 0.250000 0.933013
vt 0.283494 0.625000
vt 0.283494 0.375000
vt 0.000000 0.500000
vt 0.066987 0.750000
vt 0.250000 0.066987
vt 0.066987 0.250000
vt 0.500000 0.250000
vt 0.500000 0.000000
vt 0.500000 0.500000
vt 0.716506 0.375000
vt 0.750000 0.066987
vt 1.000000 0.500000
vt 0.933013 0.250000
vt 0.716506 0.625000
vt 0.933013 0.750000
vt 0.500000 0.750000
vt 0.750000 0.933013
vt 0.250000 0.933013
vt 0.500000 1.000000
vt 0.000000 0.500000
vt 0.066987 0.750000
vt 0.066987 0.250000
vt 0.250000 0.066987
vt 0.500000 0.000000
vt 0.750000 0.066987
vt 0.933013 0.250000
vt 1.000000 0.500000
vt 0.933013 0.750000
vt 0.750000 0.933013
vt 0.500000 1.000000
vt 0.250000 0.933013
vn 0.0000 1.0000 -0.0000
vn -0.1307 -0.9886 -0.0754
vn -0.1272 -0.9892 0.0734
vn -0.2273 -0.9736 0.0182
vn -0.1879 -0.9762 -0.1085
vn -0.1295 -0.9736 0.1877
vn -0.2153 -0.9686 0.1243
vn -0.0000 -0.9886 0.1508
vn -0.0000 -0.9762 0.2170
vn 0.0000 -1.0000 -0.0000
vn 0.1272 -0.9892 0.0734
vn 0.1295 -0.9736 0.1877
vn 0.2273 -0.9736 0.0182
vn 0.2153 -0.9686 0.1243
vn 0.1307 -0.9886 -0.0754
vn 0.1879 -0.9762 -0.1085
vn 0.0000 -0.9892 -0.1468
vn 0.0978 -0.9736 -0.2060
vn -0.0978 -0.9736 -0.2060
vn -0.0000 -0.9686 -0.2486
vn -0.9308 0.2673 -0.2494
vn -0.9409 0.2260 -0.2521
vn -0.9308 0.2673 0.2494
vn -0.9409 0.2260 0.2521
vn -0.6814 0.2673 0.6814
vn -0.6888 0.2260 0.6888
vn -0.2494 0.2673 0.9308
vn -0.2521 0.2260 0.9409
vn 0.2494 0.2673 0.9308
vn 0.2521 0.2260 0.9409
vn 0.6814 0.2673 0.6814
vn 0.6888 0.2260 0.6888
vn 0.9308 0.2673 0.2494
vn 0.9409 0.2260 0.2521
vn 0.9308 0.2673 -0.2494
vn 0.9409 0.2260 -0.2521
vn 0.6814 0.2673 -0.6814
vn 0.6888 0.2260 -0.6888
vn 0.2494 0.2673 -0.9308
vn 0.2521 0.2260 -0.9409
vn -0.2494 0.2673 -0.9308
vn -0.2521 0.2260 -0.9409
vn -0.6814 0.2673 -0.6814
vn -0.6888 0.2260 -0.6888
vn -0.9659 0.0000 -0.2588
vn -0.9659 -0.0000 0.2588
vn -0.7071 -0.0000 0.7071
vn -0.2588 -0.0000 0.9659
vn 0.2588 -0.0000 0.9659
vn 0.7071 -0.0000 0.7071
vn 0.9659 -0.0000 0.2588
vn 0.9659 0.0000 -0.2588
vn 0.7071 0.0000 -0.7071
vn 0.2588 0.0000 -0.9659
vn -0.2588 0.0000 -0.9659
vn -0.7071 0.0000 -0.7071
usemtl blinn1SG
s 1
f 1/1/1 2/2/1 3/3/1 4/4/1
f 3/3/1 5/5/1 6/6/1 4/4/1
f 6/6/1 7/7/1 8/8/1 4/4/1
f 8/8/1 7/7/1 9/9/1 10/10/1
f 9/9/1 11/11/1 12/12/1 10/10/1
f 12/12/1 13/13/1 14/14/1 10/10/1
f 14/14/1 13/13/1 15/15/1 16/16/1
f 15/15/1 17/17/1 18/18/1 16/16/1
f 18/18/1 2/2/1 1/1/1 16/16/1
f 19/19/2 20/20/3 21/21/4 22/22/5
f 21/21/4 20/20/3 23/23/6 24/24/7
f 23/23/6 20/20/3 25/25/8 26/26/9
f 25/25/8 20/20/3 19/19/2 27/27/10
f 25/25/8 28/28/11 29/29/12 26/26/9
f 29/29/12 28/28/11 30/30/13 31/31/14
f 30/30/13 28/28/11 32/32/15 33/33/16
f 32/32/15 28/28/11 25/25/8 27/27/10
f 32/32/15 34/34/17 35/35/18 33/33/16
f 35/35/18 34/34/17 36/36/19 37/37/20
f 36/36/19 34/34/17 19/19/2 22/22/5
f 19/19/2 34/34/17 32/32/15 27/27/10
f 22/22/21 21/21/21 38/38/22 39/39/22
f 21/21/23 24/24/23 40/40/24 38/38/24
f 24/24/25 23/23/25 41/41/26 40/40/26
f 23/23/27 26/26/27 42/42/28 41/41/28
f 26/26/29 29/29/29 43/43/30 42/42/30
f 29/29/31 31/31/31 44/44/32 43/43/32
f 31/31/33 30/30/33 45/45/34 44/44/34
f 30/30/35 33/33/35 46/46/36 45/45/36
f 33/33/37 35/35/37 47/47/38 46/46/38
f 35/35/39 37/37/39 48/48/40 47/47/40
f 37/37/41 36/36/41 49/49/42 48/48/42
f 36/36/43 22/22/43 39/39/44 49/49/44
f 39/39/22 38/38/22 3/3/45 2/2/45
f 38/38/24 40/40/24 5/5/46 3/3/46
f 40/40/26 41/41/26 6/6/47 5/5/47
f 41/41/28 42/42/28 7/7/48 6/6/48
f 42/42/30 43/43/30 9/9/49 7/7/49
f 43/43/32 44/44/32 11/11/50 9/9/50
f 44/44/34 45/45/34 12/12/51 11/11/51
f 45/45/36 46/46/36 13/13/52 12/12/52
f 46/46/38 47/47/38 15/15/53 13/13/53
f 47/47/40 48/48/40 17/17/54 15/15/54
f 48/48/42 49/49/42 18/18/55 17/17/55
f 49/49/44 39/39/44 2/2/56 18/18/56
